com\makaryk\Animals\Cat.class
com\makaryk\SMS\ExampleSMS.class
com\makaryk\Application.class
META-INF\org\apache\logging\log4j\core\config\plugins\Log4j2Plugins.dat
com\makaryk\Flowers\Rose.class
com\makaryk\Animals\Dog.class
com\makaryk\SMS\SmsAppender.class
com\makaryk\People\Woman.class
com\makaryk\Flowers\Narcissus.class
com\makaryk\People\Man.class
